{
  "comment": "# geometric-optics 1.1.0-dev.29 Mon Feb 21 2022 19:31:54 GMT-0700 (Mountain Standard Time)",
  "assert": {
    "sha": "767b2f345518ceca5144a152ecf40cd4f9206136",
    "branch": "master"
  },
  "axon": {
    "sha": "fb416e629872812e91bd2e24f166ded27127617f",
    "branch": "master"
  },
  "brand": {
    "sha": "abb2576ef6eb66541c6ff4524ab510e82e90303d",
    "branch": "master"
  },
  "chipper": {
    "sha": "54c1dbf24c36b73599e58b4e4d71712f2b3e14a3",
    "branch": "master"
  },
  "dot": {
    "sha": "9b51d1444a17b577763dc24c3309665aeed1442f",
    "branch": "master"
  },
  "geometric-optics": {
    "sha": "85b83859e9a1518c9fdb67b116fbdac79a1bc130",
    "branch": "master"
  },
  "joist": {
    "sha": "7022eba2c8ea0eb2374168186829ef36ee6d43a7",
    "branch": "master"
  },
  "kite": {
    "sha": "278f3b40f5e8600a727b72996127ad1555404e9e",
    "branch": "master"
  },
  "perennial-alias": {
    "sha": "dbb679715d43550a72b15784b61fc4b2f943d422",
    "branch": "master"
  },
  "phet-core": {
    "sha": "2b167ac0e092d1b3d4c8031801b8d9593b6618cb",
    "branch": "master"
  },
  "phet-io": {
    "sha": "fb27817ecd7ba0dec218e43eefbbdd7517183759",
    "branch": "master"
  },
  "phet-io-client-guides": {
    "sha": "a73233e690e15ebafed9911ae03aa58edc241297",
    "branch": "master"
  },
  "phet-io-wrappers": {
    "sha": "056de1cbf968f78b85393d75ce6cc2af809c977b",
    "branch": "master"
  },
  "phetcommon": {
    "sha": "903c5ffd8e2d474b9e3832d55fc13deaa0ec5b15",
    "branch": "master"
  },
  "phetmarks": {
    "sha": "33a6ec69a6b1a4eb99adfbbc7ac2f78b9ab23da3",
    "branch": "master"
  },
  "query-string-machine": {
    "sha": "5f3fe34cc9b42ce43af8c1e3e4a03f7a7fff9b54",
    "branch": "master"
  },
  "scenery": {
    "sha": "ca39aa7e3cb51976d2d09e73ab85db73ee2bae1f",
    "branch": "master"
  },
  "scenery-phet": {
    "sha": "0402ded0be511f80986cd85d5afae9516ea92660",
    "branch": "master"
  },
  "sherpa": {
    "sha": "1726abc00c634d324eadd83e1f49faf5999e8865",
    "branch": "master"
  },
  "studio": {
    "sha": "32ece57ae5467fe4c654d26ea3866d8be6981cc0",
    "branch": "master"
  },
  "sun": {
    "sha": "5ea7b709791ff0d9530483d7346dae305278c7f9",
    "branch": "master"
  },
  "tambo": {
    "sha": "df48fc38788139cf442673f9edcd56036e9aff90",
    "branch": "master"
  },
  "tandem": {
    "sha": "fc5683d22de15bf5e077899ea76434287aae220c",
    "branch": "master"
  },
  "twixt": {
    "sha": "407f8da75c6354b0a968d8facfd2ab634ffdc829",
    "branch": "master"
  },
  "utterance-queue": {
    "sha": "5b05862c771ef49e45b226bf9cca5c00a8f074fd",
    "branch": "master"
  }
}