{
  "pencilIcon.png": {
    "text": [
      "Copyright 2021 University of Colorado Boulder"
    ],
    "projectURL": "https://phet.colorado.edu",
    "license": "contact phethelp@colorado.edu",
    "notes": "created by Megan Lai, edited by Amy Rouinfar"
  },
  "pencilRightFacingUpright.png": {
    "text": [
      "Copyright 2021 University of Colorado Boulder"
    ],
    "projectURL": "https://phet.colorado.edu",
    "license": "contact phethelp@colorado.edu",
    "notes": "created by Megan Lai, edited by Amy Rouinfar"
  },
  "pencilRightFacingInverted.png": {
    "text": [
      "Copyright 2021 University of Colorado Boulder"
    ],
    "projectURL": "https://phet.colorado.edu",
    "license": "contact phethelp@colorado.edu",
    "notes": "created by Megan Lai, edited by Amy Rouinfar"
  },
  "pencilLeftFacingInverted.png": {
    "text": [
      "Copyright 2021 University of Colorado Boulder"
    ],
    "projectURL": "https://phet.colorado.edu",
    "license": "contact phethelp@colorado.edu",
    "notes": "created by Megan Lai, edited by Amy Rouinfar"
  },
  "pencilLeftFacingUpright.png": {
    "text": [
      "Copyright 2021 University of Colorado Boulder"
    ],
    "projectURL": "https://phet.colorado.edu",
    "license": "contact phethelp@colorado.edu",
    "notes": "created by Megan Lai, edited by Amy Rouinfar"
  },
  "penguinIcon.png": {
    "text": [
      "Copyright 2021 University of Colorado Boulder"
    ],
    "projectURL": "https://phet.colorado.edu",
    "license": "contact phethelp@colorado.edu",
    "notes": "created by Megan Lai, edited by Amy Rouinfar"
  },
  "penguinRightFacingUpright.png": {
    "text": [
      "Copyright 2021 University of Colorado Boulder"
    ],
    "projectURL": "https://phet.colorado.edu",
    "license": "contact phethelp@colorado.edu",
    "notes": "created by Megan Lai, edited by Amy Rouinfar"
  },
  "penguinRightFacingInverted.png": {
    "text": [
      "Copyright 2021 University of Colorado Boulder"
    ],
    "projectURL": "https://phet.colorado.edu",
    "license": "contact phethelp@colorado.edu",
    "notes": "created by Megan Lai, edited by Amy Rouinfar"
  },
  "penguinLeftFacingUpright.png": {
    "text": [
      "Copyright 2021 University of Colorado Boulder"
    ],
    "projectURL": "https://phet.colorado.edu",
    "license": "contact phethelp@colorado.edu",
    "notes": "created by Megan Lai, edited by Amy Rouinfar"
  },
  "penguinLeftFacingInverted.png": {
    "text": [
      "Copyright 2021 University of Colorado Boulder"
    ],
    "projectURL": "https://phet.colorado.edu",
    "license": "contact phethelp@colorado.edu",
    "notes": "created by Megan Lai, edited by Amy Rouinfar"
  },
  "lightIcon.png": {
    "text": [
      "Copyright 2021 University of Colorado Boulder"
    ],
    "projectURL": "https://phet.colorado.edu",
    "license": "contact phethelp@colorado.edu",
    "notes": "created by Megan Lai, edited by Amy Rouinfar"
  },
  "light1.png": {
    "text": [
      "Copyright 2021 University of Colorado Boulder"
    ],
    "projectURL": "https://phet.colorado.edu",
    "license": "contact phethelp@colorado.edu",
    "notes": "created by Megan Lai, edited by Amy Rouinfar"
  },
  "light2.png": {
    "text": [
      "Copyright 2021 University of Colorado Boulder"
    ],
    "projectURL": "https://phet.colorado.edu",
    "license": "contact phethelp@colorado.edu",
    "notes": "created by Megan Lai, edited by Amy Rouinfar"
  },
  "projectionScreenTop.png": {
    "text": [
      "Copyright 2021 University of Colorado Boulder"
    ],
    "projectURL": "https://phet.colorado.edu",
    "license": "contact phethelp@colorado.edu",
    "notes": "created by Megan Lai, edited by Amy Rouinfar"
  },
  "projectionScreenBottom.png": {
    "text": [
      "Copyright 2021 University of Colorado Boulder"
    ],
    "projectURL": "https://phet.colorado.edu",
    "license": "contact phethelp@colorado.edu",
    "notes": "created by Megan Lai, edited by Amy Rouinfar"
  },
  "lightPropagationOnIcon.png": {
    "text": [
      "Copyright 2022 University of Colorado Boulder"
    ],
    "projectURL": "https://phet.colorado.edu",
    "license": "contact phethelp@colorado.edu",
    "notes": "created by Amy Rouinfar"
  },
  "lightPropagationOffIcon.png": {
    "text": [
      "Copyright 2022 University of Colorado Boulder"
    ],
    "projectURL": "https://phet.colorado.edu",
    "license": "contact phethelp@colorado.edu",
    "notes": "created by Amy Rouinfar"
  }
}
